{
    "version": "1.0",
    "product": "star",
    "threshold": {
            "lowAdj_threshold": 0,
	    "3rd_lowAdj_threshold": 50,
            "lowerAdj_freeMem_threshold": 307200,
            "cam_boost_threshold": 2621440,
            "cam_boost_ext_mem": 1048576,
            "update_state_delay_ms": 5000,
            "kill_lowprio_sysapp_threshlod": 10240,
            "intercept_restart_time": 3000,
            "kill_highprio_sysapp_threshlod": 30720,
            "skip_task_lower": 1,
            "protect_locktask_num": 2,
            "kill_tag": 7
        },
    "support": {
        "oom_update_support": true,
        "perceptible_support": true,
        "inhibit_3rdprocs_enable": true
        },
    "oom": {
            "oom_level": "23040:0,38400:100,69120:200,102400:300,179200:800,307200:900"
        },
    "configs": [
        {
            "name": "protect_list",
            "config": [
                "com.ss.android.lark.kami"
            ]
        },
        {
            "name": "white_list",
            "config": [
                "com.android.camera",
                "android.process.media",
                "com.miui.gallery",
                "com.tencent.mm",
                "com.miui.home",
                "com.android.traceur",
                "com.tencent.mobileqq",
                "com.tencent.mm:push",
                "com.tencent.mobileqq:MSF",
                "com.ss.android.lark.kami:wschannel",
                "com.phonetest.application:CameraMemoryWatcher",
                "com.phonetest.application",
                "android.camera.cts",
                "android.camera.cts:errorLoggingServiceProcess"
            ]
        },
        {
            "name": "black_list",
            "config": [
                "com.miui.newhome:launcher",
                "com.miui.newhome",
                "com.miui.systemAdSolution",
                "com.xiaomi.smarthome:plugin0",
                "com.xiaomi.smarthome",
                "com.android.quicksearchbox",
                "com.miui.systemAdSolution:ui",
                "com.xiaomi.misettings",
                "com.android.settings:remote"
            ]
        },
        {
            "name": "inhibit_app_list",
            "config": [
                "com.google.android.providers.media.module",
                "com.sohu.inputmethod.sogou.xiaomi",
                "com.baidu.input_mi",
                "com.iflytek.inputmethod.miui"
            ]
        },
        {
            "name": "inhibit_native_list",
            "config": [
                "com.google.android.gms.persistent",
                "/system/bin/logd",
                "/vendor/bin/diag-router",
                "/vendor/bin/hw/android.hardware.security.keymint-service-qti"
            ]
        }
    ],
    "configs_cn": [
        {
            "name": "black_list",
            "config": [
                "com.miui.newhome:launcher",
                "com.miui.newhome",
                "com.miui.systemAdSolution",
                "com.xiaomi.smarthome:plugin0",
                "com.xiaomi.smarthome",
                "com.android.quicksearchbox",
                "com.google.android.gms",
                "com.miui.systemAdSolution:ui",
                "com.google.android.gms.persistent",
                "com.xiaomi.misettings",
                "com.android.settings:remote"
            ]
        },
        {
            "name": "intercept_restart_list",
            "config": [
                "com.xiaomi.bsp.gps.nps",
                "com.android.settings:remote",
                "com.google.process.gservices",
                "com.google.android.gms",
                "com.google.android.gms.persistent",
                "com.google.process.gapps",
                "com.android.vending"
            ]
        },
        {
            "name": "inhibit_app_list",
            "config": [
                "com.google.android.providers.media.module",
                "com.sohu.inputmethod.sogou.xiaomi",
                "com.baidu.input_mi",
                "com.iflytek.inputmethod.miui",
                "com.google.process.gservices",
                "com.google.android.gms",
                "com.google.android.gms.persistent",
                "com.google.process.gapps",
                "com.android.vending"
            ]
        }
    ]
}
