{
    "version": "1.0",
    "configs": [
        {
            "product_name": "mars",
            "type": "main_test",
            "path": "/odm/etc/cit_param_config_mars.json"
        },
        {
            "product_name": "star",
            "type": "main_test",
            "path": "/odm/etc/cit_param_config_star.json"
        },
        {
            "product_name": "mars",
            "type": "auxiliary_test",
            "path": "/odm/etc/cit_param_config_mars.json"
        },
        {
            "product_name": "star",
            "type": "auxiliary_test",
            "path": "/odm/etc/cit_param_config_star.json"
        },
        {
            "product_name": "star",
            "type": "auto_test",
            "path": "/odm/etc/cit_param_config_star.json"
        },
        {
            "product_name": "mars",
            "type": "auto_test",
            "path": "/odm/etc/cit_param_config_mars.json"
        }
    ]
}
